#running MD equilibration on the whole system
 &cntrl
  imin   = 0,
  irest  = 1,
  ntx    = 7,
  ntb    = 2,
  pres0  = 1,
  ntp    = 1,
  taup   = 2,
  cut    = 12,
  ntr    = 0,
  ntc    = 2,
  ntf    = 2,
  tempi  = 300.0,
  temp0  = 300.0,
  ntt    = 3,
  ig     = -1,
  gamma_ln = 1.0,
iwrap=1,
 ioutfm = 1,
  nstlim = 7500000, dt = 0.001
  ntpr = 1000, ntwx = 1000, ntwr = 1000
&end
